{
	"info": {
		"_postman_id": "b4d5b4a5-5ee2-4ffe-a8c3-678e8b7ae26f",
		"name": "Salad Mania APIs V2 - Live",
		"schema": "https://schema.getpostman.com/json/collection/v2.1.0/collection.json"
	},
	"item": [
		{
			"name": "getAppLaunchData",
			"request": {
				"method": "POST",
				"header": [],
				"body": {
					"mode": "formdata",
					"formdata": []
				},
				"url": {
					"raw": "https://saladmania.net/ApiController/getAppLaunchData",
					"protocol": "https",
					"host": [
						"saladmania",
						"net"
					],
					"path": [
						"ApiController",
						"getAppLaunchData"
					]
				}
			},
			"response": []
		},
		{
			"name": "getBackgroundData",
			"request": {
				"method": "POST",
				"header": [],
				"body": {
					"mode": "formdata",
					"formdata": [
						{
							"key": "category_update_time",
							"value": "2019-09-16 05:10:07",
							"type": "text"
						},
						{
							"key": "subcat_update_time",
							"value": "2019-09-11 03:13:14",
							"type": "text"
						},
						{
							"key": "ing_update_time",
							"value": "2019-09-15 06:15:04",
							"type": "text"
						},
						{
							"key": "salad_update_time",
							"value": "2019-09-14 06:15:04",
							"type": "text"
						},
						{
							"key": "settings_update_time",
							"value": "2019-09-15 06:15:03",
							"type": "text"
						}
					]
				},
				"url": {
					"raw": "https://saladmania.net/ApiController/getBackgroundData",
					"protocol": "https",
					"host": [
						"saladmania",
						"net"
					],
					"path": [
						"ApiController",
						"getBackgroundData"
					]
				}
			},
			"response": []
		},
		{
			"name": "Login",
			"request": {
				"method": "POST",
				"header": [],
				"body": {
					"mode": "formdata",
					"formdata": [
						{
							"key": "email",
							"value": "shivangi@coretechies.com",
							"type": "text"
						},
						{
							"key": "password",
							"value": "123456789",
							"type": "text"
						},
						{
							"key": "user_id",
							"value": "136",
							"type": "text"
						}
					]
				},
				"url": {
					"raw": "https://saladmania.net/ApiController/login",
					"protocol": "https",
					"host": [
						"saladmania",
						"net"
					],
					"path": [
						"ApiController",
						"login"
					]
				}
			},
			"response": []
		},
		{
			"name": "Signup",
			"request": {
				"method": "POST",
				"header": [],
				"body": {
					"mode": "formdata",
					"formdata": [
						{
							"key": "full_name",
							"value": "Apurva Bhargava",
							"type": "text"
						},
						{
							"key": "email",
							"value": "apurva@coretechies.com",
							"type": "text"
						},
						{
							"key": "phone",
							"value": "9951642162",
							"type": "text"
						},
						{
							"key": "password",
							"value": "123456789",
							"type": "text"
						},
						{
							"key": "addline1",
							"value": "Gandhi Road , Road",
							"type": "text"
						},
						{
							"key": "addline2",
							"value": "JNV Colony, Bikaner",
							"type": "text"
						},
						{
							"key": "city_id",
							"value": "1",
							"type": "text"
						}
					]
				},
				"url": {
					"raw": "https://saladmania.net/ApiController/userSignup",
					"protocol": "https",
					"host": [
						"saladmania",
						"net"
					],
					"path": [
						"ApiController",
						"userSignup"
					]
				}
			},
			"response": []
		},
		{
			"name": "forgotPassword",
			"request": {
				"method": "POST",
				"header": [
					{
						"key": "Content-Type",
						"name": "Content-Type",
						"type": "text",
						"value": "application/x-www-form-urlencoded"
					}
				],
				"body": {
					"mode": "formdata",
					"formdata": [
						{
							"key": "email",
							"value": "priyanshu@coretechies.com",
							"type": "text"
						}
					]
				},
				"url": {
					"raw": "https://saladmania.net/ApiController/forgotPassword",
					"protocol": "https",
					"host": [
						"saladmania",
						"net"
					],
					"path": [
						"ApiController",
						"forgotPassword"
					]
				}
			},
			"response": []
		},
		{
			"name": "getSettings",
			"request": {
				"method": "GET",
				"header": [
					{
						"key": "Content-Type",
						"name": "Content-Type",
						"type": "text",
						"value": "application/x-www-form-urlencoded"
					}
				],
				"url": {
					"raw": "https://saladmania.net/ApiController/getSettings",
					"protocol": "https",
					"host": [
						"saladmania",
						"net"
					],
					"path": [
						"ApiController",
						"getSettings"
					]
				}
			},
			"response": []
		},
		{
			"name": "getCities",
			"protocolProfileBehavior": {
				"disableBodyPruning": true
			},
			"request": {
				"method": "GET",
				"header": [
					{
						"key": "Content-Type",
						"name": "Content-Type",
						"type": "text",
						"value": "application/x-www-form-urlencoded"
					}
				],
				"body": {
					"mode": "formdata",
					"formdata": [
						{
							"key": "salad",
							"value": "1",
							"type": "text",
							"disabled": true
						}
					]
				},
				"url": {
					"raw": "https://saladmania.net/ApiController/getCities",
					"protocol": "https",
					"host": [
						"saladmania",
						"net"
					],
					"path": [
						"ApiController",
						"getCities"
					]
				}
			},
			"response": []
		},
		{
			"name": "contactUs",
			"request": {
				"method": "POST",
				"header": [
					{
						"key": "Content-Type",
						"name": "Content-Type",
						"type": "text",
						"value": "application/x-www-form-urlencoded"
					}
				],
				"body": {
					"mode": "formdata",
					"formdata": [
						{
							"key": "user_name",
							"value": "سلطة هوس",
							"type": "text"
						},
						{
							"key": "user_email",
							"value": "rupali@coretechies.com",
							"type": "text"
						},
						{
							"key": "user_subject",
							"value": "سلطة هوس",
							"type": "text"
						},
						{
							"key": "user_message",
							"value": "سلطة هوس website is excelent in working",
							"type": "text"
						}
					]
				},
				"url": {
					"raw": "https://saladmania.net/ApiController/contactUs",
					"protocol": "https",
					"host": [
						"saladmania",
						"net"
					],
					"path": [
						"ApiController",
						"contactUs"
					]
				}
			},
			"response": []
		},
		{
			"name": "getSaladsListing",
			"request": {
				"method": "POST",
				"header": [
					{
						"key": "Content-Type",
						"name": "Content-Type",
						"value": "application/x-www-form-urlencoded",
						"type": "text"
					}
				],
				"body": {
					"mode": "formdata",
					"formdata": [
						{
							"key": "user_id",
							"value": "1",
							"type": "text"
						},
						{
							"key": "cat_id",
							"value": "1",
							"type": "text"
						}
					]
				},
				"url": {
					"raw": "https://saladmania.net/ApiController/getSaladListing",
					"protocol": "https",
					"host": [
						"saladmania",
						"net"
					],
					"path": [
						"ApiController",
						"getSaladListing"
					]
				}
			},
			"response": []
		},
		{
			"name": "getSaladDetails",
			"request": {
				"method": "POST",
				"header": [
					{
						"key": "Content-Type",
						"name": "Content-Type",
						"value": "application/x-www-form-urlencoded",
						"type": "text"
					}
				],
				"body": {
					"mode": "formdata",
					"formdata": [
						{
							"key": "salad_id",
							"value": "1",
							"type": "text"
						}
					]
				},
				"url": {
					"raw": "https://saladmania.net/ApiController/getSaladDetails",
					"protocol": "https",
					"host": [
						"saladmania",
						"net"
					],
					"path": [
						"ApiController",
						"getSaladDetails"
					]
				}
			},
			"response": []
		},
		{
			"name": "getIngredients",
			"request": {
				"method": "POST",
				"header": [
					{
						"key": "Content-Type",
						"name": "Content-Type",
						"value": "application/x-www-form-urlencoded",
						"type": "text"
					}
				],
				"body": {
					"mode": "formdata",
					"formdata": [
						{
							"key": "salad_id",
							"value": "1",
							"type": "text",
							"disabled": true
						},
						{
							"key": "cat_id",
							"value": "1",
							"type": "text"
						},
						{
							"key": "contains_make_own",
							"value": "1",
							"type": "text"
						}
					]
				},
				"url": {
					"raw": "https://saladmania.net/ApiController/getIngredients",
					"protocol": "https",
					"host": [
						"saladmania",
						"net"
					],
					"path": [
						"ApiController",
						"getIngredients"
					]
				}
			},
			"response": []
		},
		{
			"name": "getCartListing",
			"request": {
				"method": "POST",
				"header": [
					{
						"key": "Content-Type",
						"name": "Content-Type",
						"type": "text",
						"value": "application/x-www-form-urlencoded",
						"disabled": true
					}
				],
				"body": {
					"mode": "formdata",
					"formdata": [
						{
							"key": "user_id",
							"value": "136",
							"type": "text"
						}
					]
				},
				"url": {
					"raw": "https://saladmania.net/ApiController/getCartListing",
					"protocol": "https",
					"host": [
						"saladmania",
						"net"
					],
					"path": [
						"ApiController",
						"getCartListing"
					]
				}
			},
			"response": []
		},
		{
			"name": "addItemInCart",
			"request": {
				"method": "POST",
				"header": [
					{
						"key": "Content-Type",
						"name": "Content-Type",
						"type": "text",
						"value": "application/x-www-form-urlencoded"
					}
				],
				"body": {
					"mode": "formdata",
					"formdata": [
						{
							"key": "user_id",
							"value": "1",
							"type": "text"
						},
						{
							"key": "salad_id",
							"value": "1",
							"description": "Send When salad_type is \"ready_made\"",
							"type": "text"
						},
						{
							"key": "quantity",
							"value": "1",
							"type": "text"
						},
						{
							"key": "dressing_mixed_in",
							"value": "1",
							"type": "text"
						},
						{
							"key": "salad_type",
							"value": "ready_made",
							"description": "ready_made,create_own",
							"type": "text"
						},
						{
							"key": "cat_id",
							"value": "1",
							"type": "text"
						},
						{
							"key": "special_request",
							"value": "more chillies",
							"type": "text"
						},
						{
							"key": "ingrediants",
							"value": "[]",
							"description": "Array of Ingredients Data",
							"type": "text"
						},
						{
							"key": "salad_name",
							"value": "",
							"description": "Send When salad_type is \"create_own\"",
							"type": "text",
							"disabled": true
						}
					]
				},
				"url": {
					"raw": "https://saladmania.net/ApiController/addItemInCart",
					"protocol": "https",
					"host": [
						"saladmania",
						"net"
					],
					"path": [
						"ApiController",
						"addItemInCart"
					]
				}
			},
			"response": []
		},
		{
			"name": "RemoveCart",
			"request": {
				"method": "POST",
				"header": [
					{
						"key": "Content-Type",
						"name": "Content-Type",
						"type": "text",
						"value": "application/x-www-form-urlencoded",
						"disabled": true
					}
				],
				"body": {
					"mode": "formdata",
					"formdata": [
						{
							"key": "cart_id",
							"value": "248",
							"type": "text"
						}
					]
				},
				"url": {
					"raw": "https://saladmania.net/ApiController/RemoveCart",
					"protocol": "https",
					"host": [
						"saladmania",
						"net"
					],
					"path": [
						"ApiController",
						"RemoveCart"
					]
				}
			},
			"response": []
		},
		{
			"name": "confirmCart",
			"request": {
				"method": "POST",
				"header": [
					{
						"key": "Content-Type",
						"name": "Content-Type",
						"type": "text",
						"value": "application/x-www-form-urlencoded"
					}
				],
				"body": {
					"mode": "formdata",
					"formdata": [
						{
							"key": "user_id",
							"value": "1",
							"type": "text"
						},
						{
							"key": "cart_items",
							"value": "[{\"cart_id\":\"2\",\"salad_id\":\"1\",\"salad_name\":\"Panzenella\",\"salad_name_arabic\":\"تخصيص اهتزاز الخاص بك\",\"salad_img\":\"41a7c258f454e3d28cede5a44dfa81f8.jpg\",\"cat_name\":\"Salad\",\"salad_price\":222,\"totalCalories\":182,\"ing_name\":\"Cherry Tomato,Olive,Cucamber,Red Onion,Cherry Tomato,Cherry Tomato,Cherry Tomato,Cherry Tomato,Olive,Olive\",\"ing_name_arabic\":\"طماطم كرزية,زيتون,خيار,بصل أحمر,طماطم كرزية,طماطم كرزية,طماطم كرزية,طماطم كرزية,زيتون,زيتون\",\"quantity\":\"2\"},{\"cart_id\":\"3\",\"salad_id\":null,\"salad_name\":\"sdsd\",\"salad_name_arabic\":\"sdsd\",\"salad_img\":\"custom.png\",\"cat_name\":null,\"salad_price\":132,\"totalCalories\":144,\"ing_name\":\"Cherry Tomato,Olive,Cucamber,Red Onion,Cherry Tomato,Red Onion\",\"ing_name_arabic\":\"طماطم كرزية,زيتون,خيار,بصل أحمر,طماطم كرزية,بصل أحمر\",\"quantity\":\"2\",\"dressing_mixed_in\":\"1\"}]",
							"type": "text"
						}
					]
				},
				"url": {
					"raw": "https://saladmania.net/ApiController/confirmCart",
					"protocol": "https",
					"host": [
						"saladmania",
						"net"
					],
					"path": [
						"ApiController",
						"confirmCart"
					]
				}
			},
			"response": []
		},
		{
			"name": "getAddresses",
			"request": {
				"method": "POST",
				"header": [
					{
						"key": "Content-Type",
						"name": "Content-Type",
						"type": "text",
						"value": "application/x-www-form-urlencoded"
					}
				],
				"body": {
					"mode": "formdata",
					"formdata": [
						{
							"key": "user_id",
							"value": "225",
							"type": "text"
						},
						{
							"key": "add_type",
							"value": "profile",
							"description": "delivery / ",
							"type": "text"
						}
					]
				},
				"url": {
					"raw": "https://saladmania.net/ApiController/getAddresses",
					"protocol": "https",
					"host": [
						"saladmania",
						"net"
					],
					"path": [
						"ApiController",
						"getAddresses"
					]
				}
			},
			"response": []
		},
		{
			"name": "AddDeliveryAddress",
			"request": {
				"method": "POST",
				"header": [],
				"body": {
					"mode": "formdata",
					"formdata": [
						{
							"key": "user_id",
							"value": "1",
							"type": "text"
						},
						{
							"key": "address",
							"value": "B-64 Sweet Street , Amman",
							"type": "text"
						},
						{
							"key": "add_type",
							"value": "delivery",
							"description": "delivery/profile",
							"type": "text"
						},
						{
							"key": "latitude",
							"value": "23.4241",
							"type": "text"
						},
						{
							"key": "longitude",
							"value": "53.8478",
							"type": "text"
						},
						{
							"key": "city_id",
							"value": "1",
							"type": "text"
						}
					]
				},
				"url": {
					"raw": "https://saladmania.net/ApiController/AddDeliveryAddress",
					"protocol": "https",
					"host": [
						"saladmania",
						"net"
					],
					"path": [
						"ApiController",
						"AddDeliveryAddress"
					]
				}
			},
			"response": []
		},
		{
			"name": "getFavouriteItems",
			"request": {
				"method": "POST",
				"header": [
					{
						"key": "Content-Type",
						"name": "Content-Type",
						"type": "text",
						"value": "application/x-www-form-urlencoded"
					}
				],
				"body": {
					"mode": "formdata",
					"formdata": [
						{
							"key": "user_id",
							"value": "225",
							"type": "text"
						}
					]
				},
				"url": {
					"raw": "https://saladmania.net/ApiController/getFavouriteItems",
					"protocol": "https",
					"host": [
						"saladmania",
						"net"
					],
					"path": [
						"ApiController",
						"getFavouriteItems"
					]
				}
			},
			"response": []
		},
		{
			"name": "addFavouriteItem",
			"request": {
				"method": "POST",
				"header": [
					{
						"key": "Content-Type",
						"name": "Content-Type",
						"type": "text",
						"value": "application/x-www-form-urlencoded"
					}
				],
				"body": {
					"mode": "formdata",
					"formdata": [
						{
							"key": "user_id",
							"value": "1",
							"type": "text"
						},
						{
							"key": "salad_id",
							"value": "1",
							"type": "text"
						},
						{
							"key": "action",
							"value": "add",
							"description": "add / remove",
							"type": "text"
						}
					]
				},
				"url": {
					"raw": "https://saladmania.net/ApiController/addFavouriteItem?",
					"protocol": "https",
					"host": [
						"saladmania",
						"net"
					],
					"path": [
						"ApiController",
						"addFavouriteItem"
					],
					"query": [
						{
							"key": "user_id",
							"value": "2",
							"disabled": true
						},
						{
							"key": "salad_id",
							"value": "15",
							"disabled": true
						},
						{
							"key": "action",
							"value": "remove",
							"disabled": true
						}
					]
				}
			},
			"response": []
		},
		{
			"name": "insertOrder",
			"request": {
				"method": "POST",
				"header": [
					{
						"key": "Content-Type",
						"name": "Content-Type",
						"type": "text",
						"value": "application/x-www-form-urlencoded"
					}
				],
				"body": {
					"mode": "formdata",
					"formdata": [
						{
							"key": "user_id",
							"value": "1",
							"description": "0 - In case of guest user",
							"type": "text"
						},
						{
							"key": "address_id",
							"value": "1",
							"type": "text"
						},
						{
							"key": "promo_id",
							"value": "0",
							"type": "text"
						},
						{
							"key": "total_price",
							"value": "1200",
							"description": "Order Total",
							"type": "text"
						},
						{
							"key": "tax_amt",
							"value": "20",
							"description": "Optional",
							"type": "text"
						},
						{
							"key": "discount_amt",
							"value": "100",
							"description": "Optional",
							"type": "text"
						},
						{
							"key": "delivery_charges",
							"value": "20",
							"type": "text"
						},
						{
							"key": "grand_total",
							"value": "1140",
							"type": "text"
						},
						{
							"key": "payment_method",
							"value": "online",
							"description": "online/COD",
							"type": "text"
						},
						{
							"key": "order_notes",
							"value": "",
							"description": "Any Comment - optional",
							"type": "text"
						},
						{
							"key": "in_store_pickup",
							"value": "1",
							"description": "1: Yes, 0: No",
							"type": "text"
						},
						{
							"key": "customer_name",
							"value": "Kuch bhi",
							"type": "text"
						},
						{
							"key": "customer_phone",
							"value": "7897454545",
							"type": "text"
						},
						{
							"key": "pickup_time",
							"value": "10:30 AM",
							"type": "text"
						},
						{
							"key": "pickup_date",
							"value": "2019-06-04",
							"type": "text"
						},
						{
							"key": "order_items",
							"value": "[\n     {\n          \"salad_id\":\"1\",\n         \"salad_name\":\"sdsd\",\n        \"salad_name\":\"arabic\",\n          \"quantity\":\"1\",\n          \"salad_image\":\"custom.png\",\n          \"dressing_mixed_in\":\"0\",\n          \"item_total_price\":\"650\",\n           \"totalCalories\":\"650\",\n          \"ings\":[\n                  {\"ing_id\":1,\"subcat_id\":1,\"ing_qty\":1,\"ing_price\":200},\n                  {\"ing_id\":2,\"subcat_id\":1,\"ing_qty\":2,\"ing_price\":2}\n                 ],\n        \"salad_img\":\"custom.png\",\n           \"cat_id\":1\n        },  \n        {\n             \"salad_id\":\"1\",\n             \"salad_name\":\"sdsd\",\n             \"salad_name\":\"arabic\",\n            \"quantity\":\"1\",\n            \"dressing_mixed_in\":\"1\",\n            \"item_total_price\":\"550\",\n            \"ings\":[\n                  {\"ing_id\":1,\"subcat_id\":1,\"ing_qty\":1,\"ing_price\":200},\n                  {\"ing_id\":2,\"subcat_id\":1,\"ing_qty\":2,\"ing_price\":2}\n                 ],\n      \"salad_img\":\"custom.png\",\n       \"cat_id\":1\n    }\n]",
							"type": "text"
						},
						{
							"key": "custom_salad",
							"value": "[\n     {\n          \"salad_name\":\"my_salad\",\n          \"quantity\":\"1\",\n          \"salad_image\":\"custom.png\",\n          \"dressing_mixed_in\":\"0\",\n          \"item_total_price\":\"650\",\n          \"ings\":[\n                  {\"ing_id\":\"1\",\"subcat_id\":\"1\",\"ing_qty\":\"1\",\"ing_price\":\"200\"},\n                  {\"ing_id\":\"2\",\"subcat_id\":\"1\",\"ing_qty\":\"2\",\"ing_price\":\"2\"}\n                 ],\n        \"salad_img\":\"custom.png\",\n           \"cat_id\":1\n        },  \n        {\n            \"salad_name\":\"my_salad\",\n          \"quantity\":\"1\",\n          \"salad_image\":\"custom.png\",\n          \"dressing_mixed_in\":\"0\",\n          \"item_total_price\":\"650\",\n          \"ings\":[\n                  {\"ing_id\":\"1\",\"subcat_id\":\"1\",\"ing_qty\":\"1\",\"ing_price\":\"200\"},\n                  {\"ing_id\":\"2\",\"subcat_id\":\"1\",\"ing_qty\":\"2\",\"ing_price\":\"2\"}\n                 ],\n           \"salad_img\":\"custom.png\",\n           \"cat_id\":1\n    }\n]",
							"type": "text"
						},
						{
							"key": "cat_id",
							"value": "1",
							"type": "text",
							"disabled": true
						}
					]
				},
				"url": {
					"raw": "https://saladmania.net/ApiController/insertOrder",
					"protocol": "https",
					"host": [
						"saladmania",
						"net"
					],
					"path": [
						"ApiController",
						"insertOrder"
					]
				}
			},
			"response": []
		},
		{
			"name": "getOrderListing",
			"request": {
				"method": "POST",
				"header": [
					{
						"key": "Content-Type",
						"name": "Content-Type",
						"type": "text",
						"value": "application/x-www-form-urlencoded"
					}
				],
				"body": {
					"mode": "formdata",
					"formdata": [
						{
							"key": "user_id",
							"value": "225",
							"type": "text"
						},
						{
							"key": "status",
							"value": "1",
							"description": "1:Placed, 2: Preparing, 3:Ready to Ship, 4: Out for Delivery, 5:Delivered\t",
							"type": "text",
							"disabled": true
						}
					]
				},
				"url": {
					"raw": "https://saladmania.net/ApiController/getOrderListing?",
					"protocol": "https",
					"host": [
						"saladmania",
						"net"
					],
					"path": [
						"ApiController",
						"getOrderListing"
					],
					"query": [
						{
							"key": "user_id",
							"value": "1",
							"disabled": true
						}
					]
				}
			},
			"response": []
		},
		{
			"name": "createCustomSalad",
			"request": {
				"method": "POST",
				"header": [
					{
						"key": "Content-Type",
						"name": "Content-Type",
						"type": "text",
						"value": "application/x-www-form-urlencoded"
					}
				],
				"body": {
					"mode": "formdata",
					"formdata": [
						{
							"key": "user_id",
							"value": "1",
							"type": "text"
						},
						{
							"key": "salad_name",
							"value": "Custom",
							"type": "text"
						},
						{
							"key": "ings",
							"value": "[]",
							"description": "Array of ingrdients",
							"type": "text"
						},
						{
							"key": "salad_price",
							"value": "45",
							"type": "text"
						},
						{
							"key": "salad_calories",
							"value": "40",
							"description": "Multiplied ",
							"type": "text"
						}
					]
				},
				"url": {
					"raw": "https://saladmania.net/ApiController/createCustomSalad",
					"protocol": "https",
					"host": [
						"saladmania",
						"net"
					],
					"path": [
						"ApiController",
						"createCustomSalad"
					]
				}
			},
			"response": []
		},
		{
			"name": "User Details 2",
			"request": {
				"method": "POST",
				"header": [],
				"body": {
					"mode": "formdata",
					"formdata": [
						{
							"key": "user_id",
							"value": "1",
							"type": "text"
						}
					]
				},
				"url": {
					"raw": "https://saladmania.net/ApiController/userDetails",
					"protocol": "https",
					"host": [
						"saladmania",
						"net"
					],
					"path": [
						"ApiController",
						"userDetails"
					]
				}
			},
			"response": []
		},
		{
			"name": "change_password",
			"request": {
				"method": "POST",
				"header": [
					{
						"key": "Content-Type",
						"name": "Content-Type",
						"type": "text",
						"value": "application/x-www-form-urlencoded"
					}
				],
				"body": {
					"mode": "formdata",
					"formdata": [
						{
							"key": "pswd",
							"value": "123456789",
							"type": "text"
						},
						{
							"key": "new_pswd",
							"value": "Pass@12",
							"type": "text"
						},
						{
							"key": "user_id",
							"value": "1",
							"type": "text"
						},
						{
							"key": "full_name",
							"value": "",
							"type": "text"
						},
						{
							"key": "phone",
							"value": "",
							"type": "text"
						}
					]
				},
				"url": {
					"raw": "https://saladmania.net/ApiController/change_password",
					"protocol": "https",
					"host": [
						"saladmania",
						"net"
					],
					"path": [
						"ApiController",
						"change_password"
					]
				}
			},
			"response": []
		},
		{
			"name": "guestLogin",
			"request": {
				"method": "GET",
				"header": [],
				"url": {
					"raw": ""
				}
			},
			"response": []
		}
	]
}